index
…
MersenneTwister(345)

stations, rainfall_data = let 
    precip_fname = joinpath(lab_dir, 
    "dur01d_ams_na14v11.txt")
    url = "https://hdsc.nws.noaa.gov/pub/hdsc/data/tx/dur01d_ams_na14v11.txt" 

    if !isfile(precip_fname)
        Downloads.download(url, precip_fname)
    end
    read_noaa_data(precip_fname)
end

(816×7 DataFrame
 Row │ stnid  noaa_id  name                            state   latitude  longi ⋯
     │ Int64  String   String                          String  Float64   Float ⋯
─────┼──────────────────────────────────────────────────────────────────────────
   1 │     1  60-0011  CLEAR CK AT BAY AREA BLVD       TX       29.4977   -95. ⋯
   2 │     2  60-0019  TURKEY CK AT FM 1959            TX       29.5845   -95.
   3 │     3  60-0022  ARMAND BYU AT GENOARED BLF RD   TX       29.6345   -95.
   4 │     4  60-0068  E FORK SAN JACINTO AT FM 1485   TX       30.1453   -95.
   5 │     5  60-0082  CYPRESS CK AT KUYKENDAHL RD     TX       30.0244   -95. ⋯
   6 │     6  60-0104  GREENS BYU AT MT HOUSTON PKWY   TX       29.892    -95.
   7 │     7  60-0121  CEDAR BYU AT US 90              TX       29.9729   -94.
   8 │     8  63-0187  JOLLYVILLE 2 SW                 TX       30.4208   -97.
   9 │     9  63-0191  BARTON CRK AT SH 71 N OAK HILL  TX       30.2963   -97. ⋯
  10 │    10  63-0192  BARTON CRK AT LOOP 360, AUSTIN  TX       30.2442   -97.
  11 │    11  81-0004  MCCREE BRANCH @ WHITE ROCK TRA  TX       32.8717   -96.
  ⋮  │   ⋮       ⋮                   ⋮                   ⋮        ⋮          ⋮ ⋱
 807 │   807  79-0125  EL PASO                         TX       31.7587  -106.
 808 │   808  79-0126  FT STOCKTON PECOS AP            TX       30.9119  -102. ⋯
 809 │   809  79-0142  CORSICANA CAMPBELL FLD          TX       32.0311   -96.
 810 │   810  79-0149  DALHART MUNI AP                 TX       36.0167  -102.
 811 │   811  79-0150  DALLAS HENSLEY FLD NAS          TX       32.7333   -96.
 812 │   812  79-0153  PALESTINE 2 NE                  TX       31.7831   -95. ⋯
 813 │   813  79-0157  MINERAL WELLS AP                TX       32.7817   -98.
 814 │   814  79-0159  LUFKIN ANGELINA CO AP           TX       31.2361   -94.
 815 │   815  87-0031  SECO CREEK AT MILLER RANCH      TX       29.5731   -99.
 816 │   816  99-2048  COTULLA                         TX       28.4567   -99. ⋯
                                                  2 columns and 795 rows omitted, 61925×4 DataFrame
…
